Quickly Profile Data in R • profilr
…
mtcars %>% 
  group_by(cyl) %>% 
  do(profile(.))
#> # A tibble: 33 x 22
#> # Groups:   cyl [3]
#>      cyl .column_name .column_class .column_type .count_elements
#>    <dbl>        <chr>         <chr>        <chr>           <int>
#>  1     4          mpg       numeric       double              11
#>  2     4          cyl       numeric       double              11
#>  3     4         disp       numeric       double              11
#>  4     4           hp       numeric       double              11
#>  5     4         drat       numeric       double              11
#>  6     4           wt       numeric       double              11
#>  7     4         qsec       numeric       double              11
#>  8     4           vs       numeric       double              11
#>  9     4           am       numeric       double              11
#> 10     4         gear       numeric       double              11
#> # ... with 23 more rows, and 17 more variables: .count_uniques <int>,
#> #   .percent_uniques <dbl>, .count_NULLs <int>, .percent_NULLs <dbl>,
#> #   .count_NAs <int>, .percent_NAs <dbl>, .count_zeroes <int>,
#> #   .percent_zeros <dbl>, .mean_value <dbl>, .sd_value <dbl>,
#> #   .q0_value <dbl>, .q25_value <dbl>, .q50_value <dbl>, .q75_value <dbl>,
#> #   .q100_value <dbl>, .top_5_values <chr>, .bottom_5_values <chr>
…
